%YAML 1.1
%TAG !u! tag:unity3d.com,2011:
--- !u!1001 &3696904877482721251
PrefabInstance:
  m_ObjectHideFlags: 0
  serializedVersion: 2
  m_Modification:
    serializedVersion: 3
    m_TransformParent: {fileID: 0}
    m_Modifications:
    - target: {fileID: 642412708617616431, guid: 7e6eeca1ad235504f88e3a0c7c4ae189,
        type: 3}
      propertyPath: m_Mass
      value: 7.0685835
      objectReference: {fileID: 0}
    - target: {fileID: 766540537554465740, guid: 7e6eeca1ad235504f88e3a0c7c4ae189,
        type: 3}
      propertyPath: m_RootOrder
      value: 0
      objectReference: {fileID: 0}
    - target: {fileID: 766540537554465740, guid: 7e6eeca1ad235504f88e3a0c7c4ae189,
        type: 3}
      propertyPath: m_LocalScale.x
      value: 3
      objectReference: {fileID: 0}
    - target: {fileID: 766540537554465740, guid: 7e6eeca1ad235504f88e3a0c7c4ae189,
        type: 3}
      propertyPath: m_LocalScale.y
      value: 3
      objectReference: {fileID: 0}
    - target: {fileID: 766540537554465740, guid: 7e6eeca1ad235504f88e3a0c7c4ae189,
        type: 3}
      propertyPath: m_LocalScale.z
      value: 3
      objectReference: {fileID: 0}
    - target: {fileID: 766540537554465740, guid: 7e6eeca1ad235504f88e3a0c7c4ae189,
        type: 3}
      propertyPath: m_LocalPosition.x
      value: 0
      objectReference: {fileID: 0}
    - target: {fileID: 766540537554465740, guid: 7e6eeca1ad235504f88e3a0c7c4ae189,
        type: 3}
      propertyPath: m_LocalPosition.y
      value: 0
      objectReference: {fileID: 0}
    - target: {fileID: 766540537554465740, guid: 7e6eeca1ad235504f88e3a0c7c4ae189,
        type: 3}
      propertyPath: m_LocalPosition.z
      value: 0
      objectReference: {fileID: 0}
    - target: {fileID: 766540537554465740, guid: 7e6eeca1ad235504f88e3a0c7c4ae189,
        type: 3}
      propertyPath: m_LocalRotation.w
      value: 1
      objectReference: {fileID: 0}
    - target: {fileID: 766540537554465740, guid: 7e6eeca1ad235504f88e3a0c7c4ae189,
        type: 3}
      propertyPath: m_LocalRotation.x
      value: 0
      objectReference: {fileID: 0}
    - target: {fileID: 766540537554465740, guid: 7e6eeca1ad235504f88e3a0c7c4ae189,
        type: 3}
      propertyPath: m_LocalRotation.y
      value: 0
      objectReference: {fileID: 0}
    - target: {fileID: 766540537554465740, guid: 7e6eeca1ad235504f88e3a0c7c4ae189,
        type: 3}
      propertyPath: m_LocalRotation.z
      value: 0
      objectReference: {fileID: 0}
    - target: {fileID: 766540537554465740, guid: 7e6eeca1ad235504f88e3a0c7c4ae189,
        type: 3}
      propertyPath: m_LocalEulerAnglesHint.x
      value: 0
      objectReference: {fileID: 0}
    - target: {fileID: 766540537554465740, guid: 7e6eeca1ad235504f88e3a0c7c4ae189,
        type: 3}
      propertyPath: m_LocalEulerAnglesHint.y
      value: 0
      objectReference: {fileID: 0}
    - target: {fileID: 766540537554465740, guid: 7e6eeca1ad235504f88e3a0c7c4ae189,
        type: 3}
      propertyPath: m_LocalEulerAnglesHint.z
      value: 0
      objectReference: {fileID: 0}
    - target: {fileID: 766540537554465741, guid: 7e6eeca1ad235504f88e3a0c7c4ae189,
        type: 3}
      propertyPath: m_Name
      value: Enemy Bullet 1
      objectReference: {fileID: 0}
    - target: {fileID: 766540537554465743, guid: 7e6eeca1ad235504f88e3a0c7c4ae189,
        type: 3}
      propertyPath: m_Color.b
      value: 0
      objectReference: {fileID: 0}
    - target: {fileID: 766540537554465743, guid: 7e6eeca1ad235504f88e3a0c7c4ae189,
        type: 3}
      propertyPath: m_Color.g
      value: 0
      objectReference: {fileID: 0}
    - target: {fileID: 766540537554465743, guid: 7e6eeca1ad235504f88e3a0c7c4ae189,
        type: 3}
      propertyPath: m_Color.r
      value: 0.5019608
      objectReference: {fileID: 0}
    - target: {fileID: 766540537554465743, guid: 7e6eeca1ad235504f88e3a0c7c4ae189,
        type: 3}
      propertyPath: m_SortingLayer
      value: 1
      objectReference: {fileID: 0}
    - target: {fileID: 766540537554465743, guid: 7e6eeca1ad235504f88e3a0c7c4ae189,
        type: 3}
      propertyPath: m_SortingLayerID
      value: -536576185
      objectReference: {fileID: 0}
    - target: {fileID: 8619813913888126979, guid: 7e6eeca1ad235504f88e3a0c7c4ae189,
        type: 3}
      propertyPath: range
      value: 85
      objectReference: {fileID: 0}
    - target: {fileID: 8619813913888126979, guid: 7e6eeca1ad235504f88e3a0c7c4ae189,
        type: 3}
      propertyPath: damage
      value: 1
      objectReference: {fileID: 0}
    - target: {fileID: 8619813913888126979, guid: 7e6eeca1ad235504f88e3a0c7c4ae189,
        type: 3}
      propertyPath: radius
      value: 1.5
      objectReference: {fileID: 0}
    - target: {fileID: 8619813913888126979, guid: 7e6eeca1ad235504f88e3a0c7c4ae189,
        type: 3}
      propertyPath: moveSpeed
      value: 25
      objectReference: {fileID: 0}
    - target: {fileID: 8619813913888126979, guid: 7e6eeca1ad235504f88e3a0c7c4ae189,
        type: 3}
      propertyPath: prefabIndex
      value: 0
      objectReference: {fileID: 0}
    - target: {fileID: 8619813913888126979, guid: 7e6eeca1ad235504f88e3a0c7c4ae189,
        type: 3}
      propertyPath: autoDespawnMode
      value: 1
      objectReference: {fileID: 0}
    - target: {fileID: 8619813913888126979, guid: 7e6eeca1ad235504f88e3a0c7c4ae189,
        type: 3}
      propertyPath: whatReducesHits.m_Bits
      value: 1216
      objectReference: {fileID: 0}
    m_RemovedComponents: []
    m_RemovedGameObjects: []
    m_AddedGameObjects: []
    m_AddedComponents: []
  m_SourcePrefab: {fileID: 100100000, guid: 7e6eeca1ad235504f88e3a0c7c4ae189, type: 3}
