%YAML 1.1
%TAG !u! tag:unity3d.com,2011:
--- !u!1 &2855226165620505986
GameObject:
  m_ObjectHideFlags: 0
  m_CorrespondingSourceObject: {fileID: 0}
  m_PrefabInstance: {fileID: 0}
  m_PrefabAsset: {fileID: 0}
  serializedVersion: 6
  m_Component:
  - component: {fileID: 3488588337277085663}
  - component: {fileID: 5082093640644494808}
  m_Layer: 0
  m_Name: Build Manager
  m_TagString: Untagged
  m_Icon: {fileID: 0}
  m_NavMeshLayer: 0
  m_StaticEditorFlags: 0
  m_IsActive: 1
--- !u!4 &3488588337277085663
Transform:
  m_ObjectHideFlags: 0
  m_CorrespondingSourceObject: {fileID: 0}
  m_PrefabInstance: {fileID: 0}
  m_PrefabAsset: {fileID: 0}
  m_GameObject: {fileID: 2855226165620505986}
  m_LocalRotation: {x: -0, y: -0, z: -0, w: 1}
  m_LocalPosition: {x: 0, y: 0, z: 0}
  m_LocalScale: {x: 1, y: 1, z: 1}
  m_ConstrainProportionsScale: 0
  m_Children: []
  m_Father: {fileID: 0}
  m_RootOrder: -1
  m_LocalEulerAnglesHint: {x: 0, y: 0, z: 0}
--- !u!114 &5082093640644494808
MonoBehaviour:
  m_ObjectHideFlags: 0
  m_CorrespondingSourceObject: {fileID: 0}
  m_PrefabInstance: {fileID: 0}
  m_PrefabAsset: {fileID: 0}
  m_GameObject: {fileID: 2855226165620505986}
  m_Enabled: 1
  m_EditorHideFlags: 0
  m_Script: {fileID: 11500000, guid: c19047afad9cadf4e82647c1635d5306, type: 3}
  m_Name: 
  m_EditorClassIdentifier: 
  handleMultipleInstances: 0
  persistant: 0
  buildActions:
  - name: Windows x32
    enabled: 1
    target: 5
    locationPath: C:\Users\gilea\Burst-My-Heart\Builds\Burst My Heart (Windows x32)\Burst
      My Heart.exe
    options: 00000800
    removeExtraFolders: 0
    makeZip: 0
    directoryToZip: C:\Users\gilea\Burst-My-Heart\Builds\Burst My Heart (Windows
      x32)
    zipLocationPath: C:\Users\gilea\Burst-My-Heart\Builds\Burst My Heart (Windows
      x32).zip
    clearDataOnFirstStartup: 1
  - name: Windows x64
    enabled: 1
    target: 19
    locationPath: C:\Users\gilea\Burst-My-Heart\Builds\Burst My Heart (Windows x64)\Burst
      My Heart.exe
    options: 00000800
    removeExtraFolders: 0
    makeZip: 0
    directoryToZip: C:\Users\gilea\Burst-My-Heart\Builds\Burst My Heart (Windows
      x64)
    zipLocationPath: C:\Users\gilea\Burst-My-Heart\Builds\Burst My Heart (Windows
      x64).zip
    clearDataOnFirstStartup: 1
  - name: macOS
    enabled: 1
    target: 2
    locationPath: C:\Users\gilea\Burst-My-Heart\Builds\Burst My Heart (macOS)
    options: 00000800
    removeExtraFolders: 0
    makeZip: 0
    directoryToZip: C:\Users\gilea\Burst-My-Heart\Builds\Burst My Heart (macOS)
    zipLocationPath: C:\Users\gilea\Burst-My-Heart\Builds\Burst My Heart (macOS).zip
    clearDataOnFirstStartup: 1
  - name: Linux x64
    enabled: 1
    target: 24
    locationPath: C:\Users\gilea\Burst-My-Heart\Builds\Burst My Heart (Linux x64)\Burst
      My Heart.x86_64
    options: 00000800
    removeExtraFolders: 0
    makeZip: 0
    directoryToZip: C:\Users\gilea\Burst-My-Heart\Builds\Burst My Heart (Linux x64)
    zipLocationPath: C:\Users\gilea\Burst-My-Heart\Builds\Burst My Heart (Linux x64).zip
    clearDataOnFirstStartup: 1
  - name: WebGL
    enabled: 1
    target: 20
    locationPath: C:\Users\gilea\Burst-My-Heart\Builds\Burst My Heart (WebGL)
    options: 000008000400000008000000
    removeExtraFolders: 0
    makeZip: 0
    directoryToZip: 
    zipLocationPath: 
    clearDataOnFirstStartup: 1
  versionNumberText: {fileID: 0}
  developmentStage: 0
  versionIndex: 1
  versionNumberPrefix: 
  clearDataOnFirstStartup: 1
