%YAML 1.1
%TAG !u! tag:unity3d.com,2011:
--- !u!78 &1
TagManager:
  serializedVersion: 2
  tags: []
  layers:
  - Default
  - TransparentFX
  - Ignore Raycast
  - 
  - Water
  - UI
  - Player
  - Enemy
  - Player Bullet
  - Enemy Bullet
  - Wall
  - 
  - 
  - 
  - 
  - 
  - 
  - 
  - 
  - 
  - 
  - 
  - 
  - 
  - 
  - 
  - 
  - 
  - 
  - 
  - 
  - 
  m_SortingLayers:
  - name: Back
    uniqueID: 1796107447
    locked: 0
  - name: Default
    uniqueID: 0
    locked: 0
  - name: Front
    uniqueID: 3758391111
    locked: 0
  - name: UI
    uniqueID: 746842927
    locked: 0
