%YAML 1.1
%TAG !u! tag:unity3d.com,2011:
--- !u!114 &11400000
MonoBehaviour:
  m_ObjectHideFlags: 0
  m_CorrespondingSourceObject: {fileID: 0}
  m_PrefabInstance: {fileID: 0}
  m_PrefabAsset: {fileID: 0}
  m_GameObject: {fileID: 0}
  m_Enabled: 1
  m_EditorHideFlags: 0
  m_Script: {fileID: 11500000, guid: ebc8de8875fc19b2c893aeac1d5400b3, type: 3}
  m_Name: Repeat Bullet Patterns 1
  m_EditorClassIdentifier: 
  repeatCount: 1
  bulletPatterns:
  - {fileID: 11400000, guid: 76d0f61ef5d43ef4795cd4c1dc41367d, type: 2}
  - {fileID: 11400000, guid: fb491b50e5deafd45846e972eea23c44, type: 2}
  - {fileID: 11400000, guid: 0dabc6bbffda74046bb280e43886b107, type: 2}
